{
  "command" : "f5-tmsh-list-ltm-node-recursive-ping-statistics",
  "metrics" : [ {
    "tags" : {
      "im.dstype" : "gauge",
      "im.metric-type" : "ts",
      "im.name" : "lb-server-ping-response",
      "im.step" : "60",
      "name" : "192.168.197.15"
    },
    "value" : "0.463"
  }, {
    "tags" : {
      "im.dstype" : "gauge",
      "im.metric-type" : "ts",
      "im.name" : "lb-server-ping-response",
      "im.step" : "60",
      "name" : "192.168.197.16"
    },
    "value" : "0.365"
  } ]
}
