{
  "command" : "panos-show-user-ts-agent-state",
  "metrics" : [ {
    "tags" : {
      "display-name" : "Terminal Services Agents",
      "im.dstype" : "gauge",
      "im.dstype.displaytype" : "state",
      "im.identity-tags" : "name",
      "im.metric-type" : "ts",
      "im.name" : "ts_agent_state",
      "im.step" : "60",
      "live-config" : "true",
      "name" : "Test TS-Agent 2(vsys: vsys1) Host: 1.1.1.1:5009"
    },
    "value" : "0.0"
  }, {
    "tags" : {
      "display-name" : "Terminal Services Agents",
      "im.dstype" : "gauge",
      "im.dstype.displaytype" : "state",
      "im.identity-tags" : "name",
      "im.metric-type" : "ts",
      "im.name" : "ts_agent_state",
      "im.step" : "60",
      "live-config" : "true",
      "name" : "Test TS-Agent(vsys: vsys1) Host: 1.1.1.1:5009"
    },
    "value" : "0.0"
  } ]
}
