{
  "command" : "panos-grep-mp-log",
  "metrics" : [ {
    "tags" : {
      "im.metric-type" : "runtime",
      "im.name" : "interesting-logs"
    },
    "value" : [ {
      "info" : "Review https://live.paloaltonetworks.com/t5/Management-Articles/Useful-CLI-Commands-to-Troubleshoot-LDAP-Connection/ta-p/57217",
      "line" : "Dec 30 16:00:07 Error: pan_ldap_ctrl_connect(pan_ldap_ctrl.c:832): pan_ldap_bind()  failed"
    }, {
      "info" : "Review https://live.paloaltonetworks.com/t5/Management-Articles/Useful-CLI-Commands-to-Troubleshoot-LDAP-Connection/ta-p/57217",
      "line" : "Dec 30 15:59:07 Error: pan_ldap_bind_simple(pan_ldap.c:466): ldap_sasl_bind result return(49) : Invalid credentials"
    } ]
  } ]
}
