{
  "command" : "cpmds-cplic-print",
  "metrics" : [ {
    "tags" : {
      "im.metric-type" : "runtime",
      "im.name" : "features-enabled",
      "vs.ip" : "10.10.6.10",
      "vs.name" : "lab-CP-MGMT-R7730_Management_Server"
    },
    "value" : [ {
      "name" : "cpvp-snx-25-ngx"
    }, {
      "name" : "cpsb-udir"
    }, {
      "name" : "cpsb-swb"
    }, {
      "name" : "cpsb-mntr"
    }, {
      "name" : "cpsb-wkfl-100"
    }, {
      "name" : "cpsb-ws"
    }, {
      "name" : "cpsb-rprt-10"
    }, {
      "name" : "cpsb-mptl"
    }, {
      "name" : "cpsb-comp-u"
    }, {
      "name" : "cpsb-evcr-10"
    }, {
      "name" : "cpvp-snx-25-ngx"
    }, {
      "name" : "cpvp-snx-25-ngx"
    }, {
      "name" : "cpsb-swb"
    }, {
      "name" : "cpsb-comp-u"
    }, {
      "name" : "cpsb-wkfl-100"
    }, {
      "name" : "cpsm-c-u"
    }, {
      "name" : "cpsb-ws"
    }, {
      "name" : "cpsb-rprt-10"
    }, {
      "name" : "cpsb-adn-m"
    }, {
      "name" : "cpsb-accl-m"
    }, {
      "name" : "cpsb-mptl"
    }, {
      "name" : "cpsb-npm"
    }, {
      "name" : "cpsb-evcr-10"
    }, {
      "name" : "cpsb-epm"
    }, {
      "name" : "cpvp-snx-25-ngx"
    }, {
      "name" : "cpvp-snx-25-ngx"
    }, {
      "name" : "cpsb-swb"
    }, {
      "name" : "cpsb-comp-u"
    }, {
      "name" : "cpsm-c-u"
    }, {
      "name" : "cpsm-c-u"
    }, {
      "name" : "cpsb-adn-m"
    }, {
      "name" : "cpsb-accl-m"
    }, {
      "name" : "cpsb-npm"
    }, {
      "name" : "cpsb-epm"
    }, {
      "name" : "cpsb-logs"
    }, {
      "name" : "cpsb-prvs"
    }, {
      "name" : "cpsb-udir"
    }, {
      "name" : "cpsb-mntr"
    }, {
      "name" : "cpsb-logs"
    }, {
      "name" : "cpsb-prvs"
    }, {
      "name" : "cpsb-udir"
    }, {
      "name" : "cpsb-mntr"
    }, {
      "name" : "cpsb-wkfl-100"
    }, {
      "name" : "cpsb-adn-m"
    }, {
      "name" : "cpsb-accl-m"
    }, {
      "name" : "cpsb-ws"
    }, {
      "name" : "cpsb-rprt-10"
    }, {
      "name" : "cpsb-npm"
    }, {
      "name" : "cpsb-mptl"
    }, {
      "name" : "cpsb-epm"
    }, {
      "name" : "cpsb-logs"
    }, {
      "name" : "cpsb-evcr-10"
    }, {
      "name" : "cpvp-snx-25-ngx"
    }, {
      "name" : "cpsb-prvs"
    }, {
      "name" : "cpsb-udir"
    }, {
      "name" : "cpsb-mntr"
    }, {
      "name" : "cpsb-wkfl-100"
    }, {
      "name" : "cpsb-ws"
    }, {
      "name" : "cpvp-snx-25-ngx"
    }, {
      "name" : "cpsb-swb"
    }, {
      "name" : "cpsb-comp-u"
    }, {
      "name" : "cpsm-c-u"
    }, {
      "name" : "cpsb-adn-m"
    }, {
      "name" : "cpsb-rprt-10"
    }, {
      "name" : "cpsb-accl-m"
    }, {
      "name" : "cpsb-mptl"
    }, {
      "name" : "cpsb-evcr-10"
    }, {
      "name" : "cpsb-npm"
    }, {
      "name" : "cpsb-epm"
    }, {
      "name" : "cpvp-snx-25-ngx"
    }, {
      "name" : "cpsb-logs"
    }, {
      "name" : "cpvp-snx-25-ngx"
    }, {
      "name" : "cpsb-swb"
    }, {
      "name" : "cpsb-prvs"
    }, {
      "name" : "cpsb-comp-u"
    }, {
      "name" : "cpsm-c-u"
    }, {
      "name" : "cpsb-adn-m"
    }, {
      "name" : "cpsb-accl-m"
    }, {
      "name" : "cpsb-udir"
    }, {
      "name" : "cpsb-mntr"
    }, {
      "name" : "cpsb-wkfl-100"
    }, {
      "name" : "cpsb-ws"
    }, {
      "name" : "cpsb-npm"
    }, {
      "name" : "cpsb-rprt-10"
    }, {
      "name" : "cpsb-mptl"
    }, {
      "name" : "cpsb-epm"
    }, {
      "name" : "cpsb-evcr-10"
    }, {
      "name" : "cpsb-logs"
    }, {
      "name" : "cpsb-prvs"
    }, {
      "name" : "cpvp-snx-25-ngx"
    } ]
  }, {
    "tags" : {
      "display-name" : "Support Contract Expiration",
      "im.dstype" : "gauge",
      "im.dstype.displaytype" : "date",
      "im.metric-type" : "ts",
      "im.name" : "contract-expiration",
      "im.step" : "3600",
      "live-config" : "true",
      "name" : "12P155G - CPSB-URLF-DEMO",
      "vs.ip" : "10.10.6.10",
      "vs.name" : "lab-CP-MGMT-R7730_Management_Server"
    },
    "value" : "1.5064632E9"
  }, {
    "tags" : {
      "display-name" : "Support Contract Expiration",
      "im.dstype" : "gauge",
      "im.dstype.displaytype" : "date",
      "im.metric-type" : "ts",
      "im.name" : "contract-expiration",
      "im.step" : "3600",
      "live-config" : "true",
      "name" : "176RQW5 - CPSB-ASPM-DEMO",
      "vs.ip" : "10.10.6.10",
      "vs.name" : "lab-CP-MGMT-R7730_Management_Server"
    },
    "value" : "1.5064632E9"
  }, {
    "tags" : {
      "display-name" : "Support Contract Expiration",
      "im.dstype" : "gauge",
      "im.dstype.displaytype" : "date",
      "im.metric-type" : "ts",
      "im.name" : "contract-expiration",
      "im.step" : "3600",
      "live-config" : "true",
      "name" : "2A1IASY - CPSB-DLP-DEMO",
      "vs.ip" : "10.10.6.10",
      "vs.name" : "lab-CP-MGMT-R7730_Management_Server"
    },
    "value" : "1.5064632E9"
  }, {
    "tags" : {
      "display-name" : "Support Contract Expiration",
      "im.dstype" : "gauge",
      "im.dstype.displaytype" : "date",
      "im.metric-type" : "ts",
      "im.name" : "contract-expiration",
      "im.step" : "3600",
      "live-config" : "true",
      "name" : "2W3A9UD - CPSB-DLP-DEMO",
      "vs.ip" : "10.10.6.10",
      "vs.name" : "lab-CP-MGMT-R7730_Management_Server"
    },
    "value" : "1.5064632E9"
  }, {
    "tags" : {
      "display-name" : "Support Contract Expiration",
      "im.dstype" : "gauge",
      "im.dstype.displaytype" : "date",
      "im.metric-type" : "ts",
      "im.name" : "contract-expiration",
      "im.step" : "3600",
      "live-config" : "true",
      "name" : "33PO7O4 - CPSB-COMP-U-1Y-DEMO",
      "vs.ip" : "10.10.6.10",
      "vs.name" : "lab-CP-MGMT-R7730_Management_Server"
    },
    "value" : "1485314117"
  }, {
    "tags" : {
      "display-name" : "Support Contract Expiration",
      "im.dstype" : "gauge",
      "im.dstype.displaytype" : "date",
      "im.metric-type" : "ts",
      "im.name" : "contract-expiration",
      "im.step" : "3600",
      "live-config" : "true",
      "name" : "4W03I1O - CPSB-TEX-DEMO",
      "vs.ip" : "10.10.6.10",
      "vs.name" : "lab-CP-MGMT-R7730_Management_Server"
    },
    "value" : "1.5064632E9"
  }, {
    "tags" : {
      "display-name" : "License Expiration",
      "features" : "CPSM-C-U CPSB-ADN-M CPSB-ACCL-M CPSB-NPM CPSB-EPM CPSB-LOGS CPSB-PRVS CPSB-UDIR CPSB-MNTR CPSB-WKFL-100 CPSB-WS CPSB-RPRT-10 CPSB-MPTL CPSB-EVCR-10 CPVP-SNX-25-NGX CPVP-SNX-25-NGX CPSB-SWB CPSB-COMP-U",
      "im.dstype" : "gauge",
      "im.dstype.displaytype" : "date",
      "im.identity-tags" : "name",
      "im.metric-type" : "ts",
      "im.name" : "license-expiration",
      "im.step" : "3600",
      "live-config" : "true",
      "name" : "CK-043C32F48B44",
      "vs.ip" : "10.10.6.10",
      "vs.name" : "lab-CP-MGMT-R7730_Management_Server"
    },
    "value" : "1.5067224E9"
  }, {
    "tags" : {
      "display-name" : "License Expiration",
      "features" : "CPSM-C-U CPSB-ADN-M CPSB-ACCL-M CPSB-NPM CPSB-EPM CPSB-LOGS CPSB-PRVS CPSB-UDIR CPSB-MNTR CPSB-WKFL-100 CPSB-WS CPSB-RPRT-10 CPSB-MPTL CPSB-EVCR-10 CPVP-SNX-25-NGX CPVP-SNX-25-NGX CPSB-SWB CPSB-COMP-U",
      "im.dstype" : "gauge",
      "im.dstype.displaytype" : "date",
      "im.identity-tags" : "name",
      "im.metric-type" : "ts",
      "im.name" : "license-expiration",
      "im.step" : "3600",
      "live-config" : "true",
      "name" : "CK-15B6649FC561",
      "vs.ip" : "10.10.6.10",
      "vs.name" : "lab-CP-MGMT-R7730_Management_Server"
    },
    "value" : "1.5067224E9"
  }, {
    "tags" : {
      "display-name" : "License Expiration",
      "features" : "CPSM-C-U CPSB-ADN-M CPSB-ACCL-M CPSB-NPM CPSB-EPM CPSB-LOGS CPSB-PRVS CPSB-UDIR CPSB-MNTR CPSB-WKFL-100 CPSB-WS CPSB-RPRT-10 CPSB-MPTL CPSB-EVCR-10 CPVP-SNX-25-NGX CPVP-SNX-25-NGX CPSB-SWB CPSB-COMP-U",
      "im.dstype" : "gauge",
      "im.dstype.displaytype" : "date",
      "im.identity-tags" : "name",
      "im.metric-type" : "ts",
      "im.name" : "license-expiration",
      "im.step" : "3600",
      "live-config" : "true",
      "name" : "CK-42775A38CEC8",
      "vs.ip" : "10.10.6.10",
      "vs.name" : "lab-CP-MGMT-R7730_Management_Server"
    },
    "value" : "1.5067224E9"
  }, {
    "tags" : {
      "display-name" : "License Expiration",
      "features" : "CPSM-C-U CPSB-ADN-M CPSB-ACCL-M CPSB-NPM CPSB-EPM CPSB-LOGS CPSB-PRVS CPSB-UDIR CPSB-MNTR CPSB-WKFL-100 CPSB-WS CPSB-RPRT-10 CPSB-MPTL CPSB-EVCR-10 CPVP-SNX-25-NGX CPVP-SNX-25-NGX CPSB-SWB CPSB-COMP-U",
      "im.dstype" : "gauge",
      "im.dstype.displaytype" : "date",
      "im.identity-tags" : "name",
      "im.metric-type" : "ts",
      "im.name" : "license-expiration",
      "im.step" : "3600",
      "live-config" : "true",
      "name" : "CK-569EE90DC714",
      "vs.ip" : "10.10.6.10",
      "vs.name" : "lab-CP-MGMT-R7730_Management_Server"
    },
    "value" : "1.5067224E9"
  }, {
    "tags" : {
      "display-name" : "Support Contract Expiration",
      "im.dstype" : "gauge",
      "im.dstype.displaytype" : "date",
      "im.metric-type" : "ts",
      "im.name" : "contract-expiration",
      "im.step" : "3600",
      "live-config" : "true",
      "name" : "2G1F33W - CPSB-AV-DEMO",
      "vs.ip" : "10.10.6.10",
      "vs.name" : "lab-CP-MGMT-R7730_Management_Server"
    },
    "value" : "1.5064632E9"
  }, {
    "tags" : {
      "display-name" : "Support Contract Expiration",
      "im.dstype" : "gauge",
      "im.dstype.displaytype" : "date",
      "im.metric-type" : "ts",
      "im.name" : "contract-expiration",
      "im.step" : "3600",
      "live-config" : "true",
      "name" : "3Q516TG - CPSB-APCL-DEMO",
      "vs.ip" : "10.10.6.10",
      "vs.name" : "lab-CP-MGMT-R7730_Management_Server"
    },
    "value" : "1.5064632E9"
  }, {
    "tags" : {
      "display-name" : "Support Contract Expiration",
      "im.dstype" : "gauge",
      "im.dstype.displaytype" : "date",
      "im.metric-type" : "ts",
      "im.name" : "contract-expiration",
      "im.step" : "3600",
      "live-config" : "true",
      "name" : "44Y18TG - CPSB-IPS-DEMO",
      "vs.ip" : "10.10.6.10",
      "vs.name" : "lab-CP-MGMT-R7730_Management_Server"
    },
    "value" : "1.5064632E9"
  }, {
    "tags" : {
      "display-name" : "License Expiration",
      "features" : "CPSM-C-U CPSB-ADN-M CPSB-ACCL-M CPSB-NPM CPSB-EPM CPSB-LOGS CPSB-PRVS CPSB-UDIR CPSB-MNTR CPSB-WKFL-100 CPSB-WS CPSB-RPRT-10 CPSB-MPTL CPSB-EVCR-10 CPVP-SNX-25-NGX CPVP-SNX-25-NGX CPSB-SWB CPSB-COMP-U",
      "im.dstype" : "gauge",
      "im.dstype.displaytype" : "date",
      "im.identity-tags" : "name",
      "im.metric-type" : "ts",
      "im.name" : "license-expiration",
      "im.step" : "3600",
      "live-config" : "true",
      "name" : "CK-88B16492B803",
      "vs.ip" : "10.10.6.10",
      "vs.name" : "lab-CP-MGMT-R7730_Management_Server"
    },
    "value" : "1.5067224E9"
  } ]
}
