{
  "command" : "f5-rest-mgmt-tm-sys-memory",
  "metrics" : [ {
    "tags" : {
      "im.dstype.displaytype" : "kilobytes",
      "im.name" : "memory-free-kbytes",
      "name" : "host-id: 0 type: swap"
    },
    "values" : [ "939405.0", "908091.5", "877821.7833", "848561.0572", "820275.6886", "792933.1657", "766502.0602", "740951.9915", "716253.5918", "692378.4721", "669299.1897", "646989.2167", "625422.9094", "604575.4791", "584422.9632", "564942.1977", "546110.7911", "527907.0981", "510310.1948", "493299.855", "476856.5265", "460961.3089", "445595.932", "430742.7342", "416384.6431", "402505.155", "389088.3165", "376118.706", "363581.4158", "351462.0352", "339746.6341", "328421.7463", "317474.3547", "10582.47849", "10935.22777", "11299.73537", "11676.39321", "12065.60632", "12467.7932", "12883.3863", "13312.83251", "13756.5936", "14215.14672", "14688.98494", "15178.61777", "15684.5717", "16207.39075", "16747.63711", "17305.89168", "17882.75474", "18478.84656", "19094.80811", "19731.30172", "20389.01178", "21068.6455", "21770.93369", "22496.63147", "23246.51919", "24021.40316", "24822.1166", "25649.52049", "26504.50451", "27387.98799", "28300.92092", "29244.28495", "35093.14194", "42111.77033", "50534.1244", "60640.94928", "72769.13913", "87322.96696", "104787.5604", "125745.0724", "150894.0869", "181072.9043", "217287.4851", "260744.9822", "312893.9786", "375472.7743", "450567.3292", "540680.795", "648816.954", "778580.3449", "934296.4138" ]

  }, {
    "tags" : {
      "im.dstype.displaytype" : "kilobytes",
      "im.name" : "memory-free-kbytes",
      "name" : "host-id: 0 type: tmm"
    },
    "values" : [ "2557330.0", "2480610.10", "2406191.80", "2334006.04", "2263985.86", "2196066.29", "2130184.30", "2066278.77", "2004290.41", "1944161.69", "1885836.84", "1829261.74", "1774383.89", "1721152.37", "1669517.80", "1619432.26", "1570849.30", "1523723.82", "1478012.10", "1433671.74", "1390661.59", "1348941.74", "1308473.49", "1269219.28", "1231142.70", "1194208.42", "1158382.17", "1123630.71", "1089921.78", "1057224.13", "1025507.41", "994742.18", "964899.92", "935952.92", "907874.33", "880638.10", "854218.96", "828592.39", "803734.62", "779622.58", "756233.90", "733546.89", "711540.48", "690194.27", "669488.44", "649403.78", "629921.67", "611024.02", "592693.30", "574912.50", "557665.13", "540935.17", "524707.12", "508965.90", "493696.93", "478886.02", "464519.44", "450583.86", "437066.34", "423954.35", "411235.72", "398898.65", "386931.69", "375323.74", "364064.03", "353142.10", "342547.84", "332271.41", "322303.26", "312634.17", "303255.14", "294157.49", "285332.76", "276772.78", "268469.60", "260415.51", "252603.04", "245024.95", "237674.20", "230543.98", "223627.66", "216918.83", "210411.26", "204098.93", "197975.96", "192036.68", "186275.58", "180687.31", "175266.69", "170008.69", "164908.43", "159961.18", "155162.34", "150507.47", "145992.25", "141612.48", "137364.11", "133243.18", "129245.89", "125368.51", "121607.46", "972859.64", "1167431.57", "1400917.88", "1681101.46", "2017321.75", "2420786.10", "2541825.41", "2554534.53", "2567307.21" ]
  }, {
    "tags" : {
      "im.dstype.displaytype" : "kilobytes",
      "im.name" : "memory-free-kbytes",
      "name" : "host-id: 0 type: total"
    },
    "values" : [ "2937170.0", "2849054.90", "2763583.25", "2680675.76", "2600255.48", "2522247.82", "2446580.38", "2373182.97", "2301987.48", "2232927.86", "2165940.02", "2100961.82", "2037932.97", "1976794.98", "1917491.13", "1859966.40", "1804167.40", "1750042.38", "1697541.11", "1646614.88", "1597216.43", "1549299.94", "1502820.94", "1457736.31", "1414004.22", "1371584.10", "1330436.57", "1290523.48", "1251807.77", "1214253.54", "1177825.93", "1142491.15", "1108216.42", "1074969.93", "1042720.83", "1011439.20", "1011439.20", "1011439.20", "1011439.20", "1011439.20", "1011439.20", "1011439.20", "1011439.20", "1011439.20", "1011439.20", "1011439.20", "1011439.20", "1011439.20", "1011439.20", "1011439.20", "1011439.20", "1011439.20", "1011439.20", "981096.03", "951663.15", "923113.25", "895419.85", "868557.26", "842500.54", "817225.53", "792708.76", "768927.50", "745859.67", "723483.88", "701779.37", "680725.98", "660304.20", "640495.08", "621280.23", "602641.82", "662906.00", "729196.60", "802116.26", "882327.89", "970560.68", "1067616.74", "1174378.42", "1291816.26", "1420997.89", "1563097.68", "1719407.44", "1891348.19", "2080483.01", "2288531.31", "2517384.44", "2769122.88", "3046035.17", "3350638.69", "3685702.55" ]
  }, {
    "tags" : {
      "display-name" : "Memory - Usage",
      "im.dstype.displaytype" : "percentage",
      "im.identity-tags" : "name",
      "im.name" : "memory-usage",
      "live-config" : "true",
      "name" : "other usage - host-id: 0"
    },
    "values" : [ "71.6077", "70.4720", "69.2909", "68.0626", "66.7851", "65.4565", "64.0748", "62.6378", "61.1434", "59.5891", "57.9727", "56.2917", "54.5434", "52.7251", "50.8342", "48.8676", "46.8223", "44.6953", "42.4831", "40.1825", "37.7898", "35.3015", "32.7136", "30.0222", "27.2231", "24.3121", "21.2846", "18.1361", "23.0480", "27.6652", "32.0053", "36.0850", "39.9200", "43.5248", "46.9134", "50.0986", "53.0927", "55.9072", "58.5528", "61.0397", "63.3773", "65.5747", "67.6402", "69.5818", "71.4070", "73.1226", "74.7352", "76.2511", "77.6761", "79.0155", "79.0155", "79.0155", "82.5707", "83.6164", "84.5995", "85.5235", "86.3921", "87.2086" ]
  }, {
    "tags" : {
      "display-name" : "Memory - Usage",
      "im.dstype.displaytype" : "percentage",
      "im.identity-tags" : "name",
      "im.name" : "memory-usage",
      "live-config" : "true",
      "name" : "swap usage - host-id: 0"
    },
    "values" : [ "10.411", "13.397", "16.284", "19.074", "21.772", "24.380", "26.900", "29.337", "31.692", "33.969", "36.170", "38.298", "40.355", "42.343", "44.265", "46.123", "47.919", "49.655", "51.333", "52.955", "54.523", "56.039", "57.504", "58.921", "60.290", "61.614", "62.893", "64.130", "65.326", "66.482", "67.599", "68.679", "69.723", "98.991", "98.957", "98.922", "98.886", "98.849", "98.811", "98.771", "98.730", "98.688", "98.644", "98.599", "98.552", "98.504", "98.454", "98.403", "98.350", "98.295", "98.238", "98.179", "98.118", "98.056", "97.991", "97.924", "97.855", "97.783", "97.709", "97.633", "97.554", "97.472", "97.388", "97.301", "97.211", "96.653", "95.984", "95.181", "94.217", "93.060", "91.672", "90.007", "88.008", "85.610", "82.731", "79.278", "75.133", "70.160", "64.192", "57.030", "48.436", "38.124", "25.748", "10.898" ]

  }, {
    "tags" : {
      "display-name" : "Memory - Usage",
      "im.dstype.displaytype" : "percentage",
      "im.identity-tags" : "name",
      "im.name" : "memory-usage",
      "live-config" : "true",
      "name" : "total usage - host-id: 0"
    },
    "values" : [ "29.4050", "31.5228", "33.5771", "35.5698", "37.5028", "39.3777", "41.1964", "42.9605", "44.6717", "46.3316", "47.9416", "49.5034", "51.0183", "52.4878", "53.9131", "55.2958", "56.6369", "57.9378", "59.1997", "60.4237", "61.6110", "62.7627", "63.8798", "64.9634", "66.0145", "67.0341", "68.0231", "68.9824", "69.9129", "70.8155", "71.6911", "72.5404", "73.3642", "74.1632", "74.9383", "75.6902", "75.6902", "75.6902", "75.6902", "75.6902", "75.6902", "75.6902", "75.6902", "75.6902", "75.6902", "75.6902", "75.6902", "75.6902", "75.6902", "75.6902", "75.6902", "75.6902", "75.6902", "76.4195", "77.1269", "77.8131", "78.4787", "79.1244", "79.7506", "80.3581", "80.9474", "81.5190", "82.0734", "82.6112", "83.1329", "83.6389", "84.1297", "84.6058", "85.0677", "85.5156", "84.0672", "82.4739", "80.7213", "78.7935", "76.6728", "74.3401", "71.7741", "68.9515", "65.8467", "62.4314", "58.6745", "54.5420", "49.9962", "44.9958", "39.4954", "33.4450", "26.7895", "19.4685", "11.4154" ]
  }, {
    "tags" : {
      "im.dstype.displaytype" : "kilobytes",
      "im.name" : "memory-free-kbytes",
      "name" : "host-id: 0 type: other"
    },
    "values" : [ "379838.0", "395031.52", "410832.78", "427266.09", "444356.74", "462131.01", "480616.25", "499840.90", "519834.53", "540627.91", "562253.03", "584743.15", "608132.88", "632458.19", "657756.52", "684066.78", "711429.45", "739886.63", "769482.09", "800261.38", "832271.83", "865562.71", "900185.21", "936192.62", "973640.33", "1012585.94", "1053089.38", "1095212.95", "1029500.18", "967730.17", "909666.36", "855086.37", "803781.19", "755554.32", "710221.06", "667607.80", "627551.33", "589898.25", "554504.35", "521234.09", "489960.05", "460562.45", "432928.70", "406952.98", "382535.80", "359583.65", "338008.63", "317728.11", "298664.43", "280744.56", "263899.89", "248065.89", "233181.94", "219191.02", "206039.56", "193677.19", "182056.56", "171133.16" ]
  }, {
    "tags" : {
      "im.dstype.displaytype" : "kilobytes",
      "im.name" : "memory-total-kbytes",
      "name" : "host-id: 0 type: other"
    },
    "values" : [ "1337820.0" ]
  }, {
    "tags" : {
      "im.dstype.displaytype" : "kilobytes",
      "im.name" : "memory-total-kbytes",
      "name" : "host-id: 0 type: swap"
    },
    "values" : [ "1048570.0" ]
  }, {
    "tags" : {
      "im.dstype.displaytype" : "kilobytes",
      "im.name" : "memory-total-kbytes",
      "name" : "host-id: 0 type: tmm"
    },
    "values" : [ "2822770.0" ]
  }, {
    "tags" : {
      "im.dstype.displaytype" : "kilobytes",
      "im.name" : "memory-total-kbytes",
      "name" : "host-id: 0 type: total"
    },
    "values" : [ "4160590.0" ]
  }, {
    "tags" : {
      "display-name" : "Memory - Usage",
      "im.dstype.displaytype" : "percentage",
      "im.identity-tags" : "name",
      "im.name" : "memory-usage",
      "live-config" : "true",
      "name" : "tmm usage - host-id: 0"
    },
    "values" : [ "9.404", "12.121", "14.758", "17.315", "19.796", "22.202", "24.536", "26.800", "28.996", "31.126", "33.192", "35.196", "37.140", "39.026", "40.855", "42.630", "44.351", "46.020", "47.640", "49.210", "50.734", "52.212", "53.646", "55.036", "56.385", "57.694", "58.963", "60.194", "61.388", "62.547", "63.670", "64.760", "65.817", "66.843", "67.837", "68.802", "69.738", "70.646", "71.527", "72.381", "73.210", "74.013", "74.793", "75.549", "76.283", "76.994", "77.684", "78.354", "79.003", "79.633", "80.244", "80.837", "81.412", "81.969", "82.510", "83.035", "83.544", "84.038", "84.516", "84.981", "85.431", "85.869", "86.292", "86.704", "87.103", "87.490", "87.865", "88.229", "88.582", "88.925", "89.257", "89.579", "89.892", "90.195", "90.489", "90.774", "91.051", "91.320", "91.580", "91.833", "92.078", "92.315", "92.546", "92.770", "92.987", "93.197", "93.401", "93.599", "93.791", "93.977", "94.158", "94.333", "94.503", "94.668", "94.828", "94.983", "95.134", "95.280", "95.421", "95.559", "95.692", "65.536", "58.643", "50.371", "40.446", "28.535", "14.242", "9.954", "9.504", "9.051" ]
  } ]
}
