{
  "command" : "f5-rest-mgmt-tm-sys-snmp-communities",
  "metrics" : [ {
    "tags" : {
      "im.dstype.displaytype" : "boolean",
      "im.name" : "f5-unencrypted-snmp-configured"
    },
    "value" : {
      "values" : [ "true" ]
    }
  } ]
}
