{
  "command" : "nexus-show-running-config-diff",
  "metrics" : [ {
    "tags" : {
      "display-name" : "Configuration Unsaved?",
      "im.dstype" : "gauge",
      "im.dstype.displaytype" : "boolean",
      "im.metric-type" : "ts",
      "im.name" : "config-unsaved",
      "live-config" : "true"
    },
    "value" : "0.0"
  } ]
}
