{
  "command" : "chkp-os-raid_diagnostic",
  "metrics" : [ {
    "tags" : {
      "im.dstype" : "gauge",
      "im.metric-type" : "ts",
      "im.name" : "hardware-element-status",
      "im.step" : "300",
      "name" : "RAID VolumeID:0"
    },
    "value" : "0.0"
  } ]
}
